{
  "kind": "collectionType",
  "collectionName": "clients",
  "info": {
    "singularName": "client",
    "pluralName": "clients",
    "displayName": "client",
    "description": ""
  },
  "options": {
    "draftAndPublish": false
  },
  "pluginOptions": {},
  "attributes": {
    "name": {
      "type": "string"
    },
    "age": {
      "type": "integer"
    }
  }
}
